[
    {
        "content": "A whole lot of stuff went wrong this week to put me behind schedule, but the vast majority of the material is currently posted. There's a few videos at the end of the class that I'm still waiting on from the editor, and I need to finish the prevention, detection, and mitigation sections. But everything should fall into place over the weekend. In the meantime, check out these sweet vulns and sploits! :D",
        "date": "February 17, 2023",
        "id": 1,
        "status": "deleted"
    },
    {
        "content": "I'm still waiting on a few videos from the video editor, but they're at the end of the class, and none of you have reached there yet ;). In the meantime, the Prevention, Detection, and Mitigation (PDM) sections have their initial content. I'll need to keep thinking about and revising these, but for now I have to move on to some more pressing content (like the 3 InfoLeaks at the end of the class that I haven't written up or recorded yet ;))",
        "date": "February 20, 2023",
        "id": 2,
        "status": "deleted"
    },
    {
        "content": "I've released the \"Optional: IDE Guidance for Viewing Code\" section at the beginning of class, which gives my guidance on how to use Eclipse for navigating around code and tracking ACID, for those who don't already have a strongly-preferred code navigation environment. This material wasn't strictly necessarily for the first version of Vulns1001, but will be incorporated into the next Vulns1001 update (because there will be new exercises that require more code reading.)",
        "date": "February 20, 2023",
        "id": 3,
        "status": "visible"
    },
    {
        "content": "I've added a supplemental \"Did you find the flaw?\" question to the existing \"How hard was it to find the flaw?\". This will give me a better sense of what % of the time folks are actually finding the flaws successfully, vs. incorrectly, vs. just moving on. Please go review the FTF examples you've already done and answer that additional question.",
        "date": "February 23, 2023",
        "id": 4,
        "status": "visible"
    },
    {
        "content": "If you've been submitting subtitle fixes, the new URL is https://gitlab.com/opensecuritytraining/vulns1002_c_implementation_vulns_oex_and_subtitles/-/tree/main/course/static. I've created a script which should theoretically allow me to upload all subtitles in that repository at the same time, which will keep subtitles in sync better!",
        "date": "February 26, 2023",
        "id": 5,
        "status": "visible"
    },
    {
        "content": "The beta server is having unknown issues which are preventing me from importing/exporting classes, but also preventing you from submitting quiz question answers. The site will probably be going up and down today as I try and resolve the problem.",
        "date": "February 27, 2023",
        "id": 6,
        "status": "deleted"
    },
    {
        "content": "It has been confirmed that the \"mark as complete\" checkboxes didn't get recorded properly while the site was experiencing an error (Approx 8AM GMT-5 2/26 - 4pm GMT-5 2/28). So please take a look at your Progress page, and visit any pages that you know you completed but which show a grade of 0, and re-submit it (you will probably need to un-check and then re-check the box.) Email replies to your discussion posts were also not been sent, so double check your posts to see if you already got a reply.",
        "date": "February 28, 2023",
        "id": 7,
        "status": "visible"
    }
]